         _           _      _          _       _            _
        /\ \        / /\   /\ \    _ / /\     /\ \         /\ \     _
       /  \ \      / /  \  \ \ \  /_/ / /    /  \ \       /  \ \   /\_\
      / /\ \ \    / / /\ \  \ \ \ \___\/    / /\ \ \     / /\ \ \_/ / /
     / / /\ \_\  / / /\ \ \ / / /  \ \ \   / / /\ \_\   / / /\ \___/ /
    / / /_/ / / / / /  \ \ \\ \ \   \_\ \ / /_/_ \/_/  / / /  \/____/
   / / /__\/ / / / /___/ /\ \\ \ \  / / // /____/\    / / /    / / /
  / / /_____/ / / /_____/ /\ \\ \ \/ / // /\____\/   / / /    / / /
 / / /\ \ \  / /_________/\ \ \\ \ \/ // / /______  / / /    / / /
/ / /  \ \ \/ / /_       __\ \_\\ \  // / /_______\/ / /    / / /
\/_/    \_\/\_\___\     /____/_/ \_\/ \/__________/\/_/     \/_/